{
  "name": "neuflow",
  "version": "0.1.0",
  "private": true,
  "scripts": {
    "serve": "vue-cli-service serve",
    "build": "vue-cli-service build",
    "lint": "vue-cli-service lint"
  },
  "dependencies": {
    "@formkit/pro": "^1.0.0-alpha.35",
    "@formkit/vue": "^1.0.0-beta.12",
    "axios": "^1.1.3",
    "core-js": "^3.8.3",
    "vue": "^3.2.13",
    "vue-class-component": "7.2.6",
    "vue-property-decorator": "9.1.2",
    "vue-router": "3.6.5",
    "vuex": "3.6.2"
  },
  "devDependencies": {
    "@babel/core": "^7.12.16",
    "@babel/eslint-parser": "^7.12.16",
    "@typescript-eslint/eslint-plugin": "5.36.2",
    "@typescript-eslint/parser": "5.36.2",
    "@vue/cli-plugin-babel": "~5.0.0",
    "@vue/cli-plugin-eslint": "~5.0.0",
    "@vue/cli-plugin-pwa": "5.0.8",
    "@vue/cli-plugin-router": "5.0.8",
    "@vue/cli-plugin-typescript": "5.0.8",
    "@vue/cli-plugin-vuex": "5.0.8",
    "@vue/cli-service": "~5.0.0",
    "@vue/eslint-config-typescript": "11.0.1",
    "eslint": "^7.32.0",
    "eslint-config-prettier": "8.5.0",
    "eslint-plugin-prettier": "4.2.1",
    "eslint-plugin-vue": "^8.0.3",
    "prettier": "2.7.1",
    "sass": "~1.32.0",
    "sass-loader": "^10.0.0",
    "typescript": "4.8.2",
    "vue-loader": "^13.0.4",
    "vue-style-loader": "^3.0.1",
    "vue-template-compiler": "^2.4.2"
  },
  "eslintConfig": {
    "root": true,
    "env": {
      "node": true
    },
    "extends": [
      "plugin:vue/vue3-essential",
      "eslint:recommended"
    ],
    "parserOptions": {
      "parser": "@babel/eslint-parser"
    },
    "rules": {}
  },
  "browserslist": [
    "> 1%",
    "last 2 versions",
    "not dead",
    "not ie 11"
  ]
}
